…
## REST

The REST client is implemented with a functional interface. Below are some examples.

You can download Apple quotes data with:
```{r, eval=FALSE}
polygon::get_aggregates(
  ticker     = "AAPL",
  multiplier = 15,
  timespan   = "minute",
  from       = as.Date("2020-11-03"),
  to         = as.Date("2020-11-03")
)
#> # A tibble: 64 x 6
#>    volume  open close  high   low time               
#>     <dbl> <dbl> <dbl> <dbl> <dbl> <dttm>             
#>  1  18425  110.  110.  110.  109. 2020-11-03 09:00:00
#>  2  12067  110.  110.  110.  110. 2020-11-03 09:15:00
#>  3  14066  110.  110.  110.  110. 2020-11-03 09:30:00
#>  4  12468  110.  109.  110.  109. 2020-11-03 09:45:00
#>  5   8804  109.  109.  110.  109. 2020-11-03 10:00:00
#>  6   7713  110.  110.  110.  110. 2020-11-03 10:15:00
#>  7  12345  110.  110.  110.  110. 2020-11-03 10:30:00
#>  8  10551  110.  109.  110.  109. 2020-11-03 10:45:00
#>  9  14786  109.  109.  110.  109. 2020-11-03 11:00:00
#> 10  18022  109.  109.  109.  109. 2020-11-03 11:15:00
#> # … with 54 more rows
```
…
Get a list of supported crypto currency exchanges with.
```{r, eval=FALSE}
polygon::get_exchanges_cypto()
#> # A tibble: 22 x 5
#>       id type     market name     url                      
#>    <int> <chr>    <chr>  <chr>    <chr>                    
#>  1     1 exchange crypto GDAX     https://www.gdax.com/    
#>  2     2 exchange crypto BITFINEX https://www.bitfinex.com/
#>  3     3 exchange crypto BitMEX   https://www.bitmex.com/  
#>  4     4 exchange crypto Binance  https://www.binance.com/ 
#>  5     5 exchange crypto Binance  https://gemini.com/      
#>  6     6 exchange crypto Bitstamp https://www.bitstamp.net/
#>  7     7 exchange crypto POLONIEX https://poloniex.com/    
#>  8     8 exchange crypto CEXIO    https://cex.io/          
#>  9     9 exchange crypto BitBay   https://bitbay.net/en    
#> 10    10 exchange crypto HitBTC   https://hitbtc.com/      
#> # ... with 12 more rows
```
…
